%YAML 1.1
%TAG !u! tag:unity3d.com,2011:
--- !u!213 &21300000
Sprite:
  m_ObjectHideFlags: 0
  m_PrefabParentObject: {fileID: 0}
  m_PrefabInternal: {fileID: 0}
  m_Name: Cordelias_Porcelain_Mindy_31
  m_Rect:
    serializedVersion: 2
    x: 477
    y: 126
    width: 43
    height: 29
  m_Offset: {x: 12.987305, y: -7.257614}
  m_Border: {x: 0, y: 0, z: 0, w: 0}
  m_PixelsToUnits: 100
  m_Pivot: {x: 0.8020303, y: 0.24973744}
  m_Extrude: 1
  m_IsPolygon: 0
  m_AtlasName: 
  m_PackingTag: 
  m_RenderDataKey:
    7dabe898ef4c88e4a89140975186880b: 21300020
  m_AtlasTags: []
  m_SpriteAtlas: {fileID: 0}
  m_RD:
    serializedVersion: 2
    texture: {fileID: 2800000, guid: 7dabe898ef4c88e4a89140975186880b, type: 3}
    alphaTexture: {fileID: 0}
    m_SubMeshes:
    - serializedVersion: 2
      firstByte: 0
      indexCount: 6
      topology: 0
      baseVertex: 0
      firstVertex: 0
      vertexCount: 4
      localAABB:
        m_Center: {x: 0, y: 0, z: 0}
        m_Extent: {x: 0, y: 0, z: 0}
    m_IndexBuffer: 000001000200020001000300
    m_VertexData:
      serializedVersion: 2
      m_VertexCount: 4
      m_Channels:
      - stream: 0
        offset: 0
        format: 0
        dimension: 3
      - stream: 0
        offset: 0
        format: 0
        dimension: 0
      - stream: 0
        offset: 0
        format: 0
        dimension: 0
      - stream: 0
        offset: 0
        format: 0
        dimension: 0
      - stream: 1
        offset: 0
        format: 0
        dimension: 2
      - stream: 0
        offset: 0
        format: 0
        dimension: 0
      - stream: 0
        offset: 0
        format: 0
        dimension: 0
      - stream: 0
        offset: 0
        format: 0
        dimension: 0
      - stream: 0
        offset: 0
        format: 0
        dimension: 0
      - stream: 0
        offset: 0
        format: 0
        dimension: 0
      - stream: 0
        offset: 0
        format: 0
        dimension: 0
      - stream: 0
        offset: 0
        format: 0
        dimension: 0
      m_DataSize: 80
      _typelessdata: 3393b0be48cc5e3e000000000a57ae3d48cc5e3e000000003393b0bef65294bd000000000a57ae3df65294bd000000003bb1433f9992a93e5555553f9992a93e3bb1433f9ed8893e5555553f9ed8893e
    m_Bindpose: []
    m_SourceSkin: []
    textureRect:
      serializedVersion: 2
      x: 477
      y: 126
      width: 43
      height: 29
    textureRectOffset: {x: 0, y: 0}
    atlasRectOffset: {x: -1, y: -1}
    settingsRaw: 64
    uvTransform: {x: 100, y: 511.4873, z: 100, w: 133.24239}
    downscaleMultiplier: 1
  m_AtlasRD:
    serializedVersion: 2
    texture: {fileID: 2800000, guid: 7dabe898ef4c88e4a89140975186880b, type: 3}
    alphaTexture: {fileID: 0}
    m_SubMeshes:
    - serializedVersion: 2
      firstByte: 0
      indexCount: 6
      topology: 0
      baseVertex: 0
      firstVertex: 0
      vertexCount: 4
      localAABB:
        m_Center: {x: 0, y: 0, z: 0}
        m_Extent: {x: 0, y: 0, z: 0}
    m_IndexBuffer: 000001000200020001000300
    m_VertexData:
      serializedVersion: 2
      m_VertexCount: 4
      m_Channels:
      - stream: 0
        offset: 0
        format: 0
        dimension: 3
      - stream: 0
        offset: 0
        format: 0
        dimension: 0
      - stream: 0
        offset: 0
        format: 0
        dimension: 0
      - stream: 0
        offset: 0
        format: 0
        dimension: 0
      - stream: 1
        offset: 0
        format: 0
        dimension: 2
      - stream: 0
        offset: 0
        format: 0
        dimension: 0
      - stream: 0
        offset: 0
        format: 0
        dimension: 0
      - stream: 0
        offset: 0
        format: 0
        dimension: 0
      - stream: 0
        offset: 0
        format: 0
        dimension: 0
      - stream: 0
        offset: 0
        format: 0
        dimension: 0
      - stream: 0
        offset: 0
        format: 0
        dimension: 0
      - stream: 0
        offset: 0
        format: 0
        dimension: 0
      m_DataSize: 80
      _typelessdata: 3393b0be48cc5e3e000000000a57ae3d48cc5e3e000000003393b0bef65294bd000000000a57ae3df65294bd000000003bb1433f9992a93e5555553f9992a93e3bb1433f9ed8893e5555553f9ed8893e
    m_Bindpose: []
    m_SourceSkin: []
    textureRect:
      serializedVersion: 2
      x: 477
      y: 126
      width: 43
      height: 29
    textureRectOffset: {x: 0, y: 0}
    atlasRectOffset: {x: -1, y: -1}
    settingsRaw: 64
    uvTransform: {x: 100, y: 511.4873, z: 100, w: 133.24239}
    downscaleMultiplier: 1
  m_PhysicsShape:
  - - {x: 0.08512695, y: 0.06757614}
    - {x: 0.045126952, y: 0.09757614}
    - {x: -0.0048730467, y: 0.10757614}
    - {x: -0.06487305, y: 0.05757614}
    - {x: -0.06487305, y: 0.027576141}
    - {x: -0.08487304, y: 0.05757614}
    - {x: -0.10487305, y: 0.06757614}
    - {x: -0.114873044, y: 0.04757614}
    - {x: -0.114873044, y: -0.032423858}
    - {x: -0.08487304, y: -0.07242386}
    - {x: -0.0048730467, y: -0.07242386}
    - {x: 0.025126953, y: -0.06242386}
    - {x: 0.08512695, y: -0.032423858}
  - - {x: -0.10487305, y: 0.11757614}
    - {x: -0.09487305, y: 0.087576136}
    - {x: -0.06487305, y: 0.087576136}
    - {x: -0.034873046, y: 0.11757614}
    - {x: -0.034873046, y: 0.13757613}
    - {x: -0.06487305, y: 0.14757614}
  m_Bones: []
  m_SpriteID: a00cbbf9b0448a94e8dcd4522d3c5566
