%YAML 1.1
%TAG !u! tag:unity3d.com,2011:
--- !u!1045 &1
EditorBuildSettings:
  m_ObjectHideFlags: 0
  serializedVersion: 2
  m_Scenes:
  - enabled: 0
    path: 
    guid: 00000000000000000000000000000000
  - enabled: 1
    path: Assets/Scenes/Main_Menu.unity
    guid: 6cc930c141575ec4b81737241bfa9b55
  - enabled: 1
    path: Assets/Scenes/Level1.unity
    guid: d3c9f753465ab874393673f9b3da96eb
  - enabled: 1
    path: Assets/Scenes/Level2.unity
    guid: d52a7683196554a44a13efb5e24fede0
  - enabled: 1
    path: Assets/Scenes/Cutscenes.unity
    guid: 144e1dd47380941439d4d26a0429648e
  m_configObjects: {}
