%YAML 1.1
%TAG !u! tag:unity3d.com,2011:
--- !u!78 &1
TagManager:
  serializedVersion: 2
  tags:
  - Score
  - Combo
  - Explosion
  - BombEnemy
  - Spawner
  - Enemy
  - ShieldProjectile
  - HealthPickup
  - ImpactBlast
  - Shockwave
  - BombStopper
  - DollSpawner
  layers:
  - Default
  - TransparentFX
  - Ignore Raycast
  - 
  - Water
  - UI
  - 
  - 
  - Ground
  - Enemy
  - Player
  - Explosion
  - 
  - 
  - 
  - 
  - 
  - 
  - 
  - 
  - 
  - 
  - 
  - 
  - 
  - 
  - 
  - 
  - 
  - 
  - 
  - 
  m_SortingLayers:
  - name: Default
    uniqueID: 0
    locked: 0
